[gd_scene load_steps=4 format=2]

[ext_resource path="res://assets/Interface/DialogBox.png" type="Texture" id=1]
[ext_resource path="res://assets/Fonts/DialogFont.tres" type="DynamicFont" id=2]
[ext_resource path="res://src/Interface/Dialogs/DialogBox.gd" type="Script" id=3]

[node name="DialogBox" type="Control"]
anchor_right = 1.0
anchor_bottom = 1.0
script = ExtResource( 3 )
__meta__ = {
"_edit_use_anchors_": false,
"_edit_vertical_guides_": [ 240.0 ]
}

[node name="Background" type="TextureRect" parent="."]
anchor_left = 0.5
anchor_top = 1.0
anchor_right = 0.5
anchor_bottom = 1.0
margin_left = -180.0
margin_top = -93.0
margin_right = 180.0
margin_bottom = -3.0
texture = ExtResource( 1 )
stretch_mode = 1
__meta__ = {
"_edit_use_anchors_": false
}

[node name="Text" type="RichTextLabel" parent="Background"]
anchor_left = 0.5
anchor_top = 0.5
anchor_right = 0.5
anchor_bottom = 0.5
margin_left = -173.0
margin_top = -37.0
margin_right = 172.0
margin_bottom = 37.0
custom_fonts/normal_font = ExtResource( 2 )
custom_colors/default_color = Color( 0.180392, 0.113725, 0.0627451, 1 )
bbcode_text = "Placeholder text !!! Lorem ipsum, lorem ipsum etc. etc.
Welcome in Blur Jump !!!
aaaaaaaaaaaaaaaaaaaaaaaaaaaaaaaaaaaaaa"
text = "Placeholder text !!! Lorem ipsum, lorem ipsum etc. etc.
Welcome in Blur Jump !!!
aaaaaaaaaaaaaaaaaaaaaaaaaaaaaaaaaaaaaa"
__meta__ = {
"_edit_use_anchors_": false
}

[node name="EnterText" type="RichTextLabel" parent="Background"]
anchor_left = 0.5
anchor_top = 0.5
anchor_right = 0.5
anchor_bottom = 0.5
margin_left = 107.0
margin_top = 30.0
margin_right = 219.0
margin_bottom = 48.0
rect_scale = Vector2( 0.7, 0.7 )
custom_fonts/normal_font = ExtResource( 2 )
custom_colors/default_color = Color( 0.0488281, 0.033048, 0.0209808, 1 )
bbcode_text = "PRESS ENTER"
text = "PRESS ENTER"
__meta__ = {
"_edit_use_anchors_": false
}
