[gd_scene load_steps=5 format=2]

[ext_resource path="res://src/Items/Potions/AttackPowerPotion.gd" type="Script" id=1]
[ext_resource path="res://assets/Items/Potions/AttackPowerPotion.png" type="Texture" id=2]

[sub_resource type="RectangleShape2D" id=1]
extents = Vector2( 6, 5 )

[sub_resource type="RectangleShape2D" id=2]
extents = Vector2( 6, 6 )

[node name="AttackPowerPotion" type="KinematicBody2D"]
collision_layer = 128
collision_mask = 8
script = ExtResource( 1 )

[node name="AttackPowerPotionShape" type="CollisionShape2D" parent="."]
position = Vector2( 0, -1 )
shape = SubResource( 1 )

[node name="AttackPowerPotion" type="Sprite" parent="."]
texture = ExtResource( 2 )

[node name="PickUpArea" type="Area2D" parent="."]
collision_layer = 128

[node name="PickUpShape" type="CollisionShape2D" parent="PickUpArea"]
shape = SubResource( 2 )

[node name="AttackPowerTimer" type="Timer" parent="."]
[connection signal="body_entered" from="PickUpArea" to="." method="_on_PickUpArea_body_entered"]
[connection signal="timeout" from="AttackPowerTimer" to="." method="_on_AttackPowerTimer_timeout"]
