[gd_scene load_steps=3 format=2]

[ext_resource path="res://src/ScriptedAnimations/Afterimage.tres" type="SpriteFrames" id=1]
[ext_resource path="res://src/ScriptedAnimations/Afterimage.gd" type="Script" id=2]

[node name="AfterImage" type="Node2D"]
script = ExtResource( 2 )

[node name="Img1" type="AnimatedSprite" parent="."]
frames = ExtResource( 1 )

[node name="Img2" type="AnimatedSprite" parent="."]
frames = ExtResource( 1 )

[node name="Img3" type="AnimatedSprite" parent="."]
frames = ExtResource( 1 )

[node name="Img4" type="AnimatedSprite" parent="."]
frames = ExtResource( 1 )

[node name="Img5" type="AnimatedSprite" parent="."]
frames = ExtResource( 1 )

[node name="Img6" type="AnimatedSprite" parent="."]
frames = ExtResource( 1 )
